Project 1: Exploratory Data Analysis and Tidyverse Tools
…
# Return NA values back to Lat. and Long. for SARS observations.
Coronavirus$Latitude[Coronavirus$Latitude == "Not Recorded"] <- NA
Coronavirus$Longitude[Coronavirus$Longitude == "Not Recorded"] <- NA

# dplyr investigation!

# Show highest observations for number of deaths on a given day.
Coronavirus %>% group_by(Country.Region) %>% summarize(Deaths=max(Deaths)) %>% arrange(desc(Deaths))

## # A tibble: 191 x 2
##    Country.Region Deaths
##    <chr>           <int>
##  1 US               2612
##  2 France           1436
##  3 China            1290
##  4 United Kingdom   1172
##  5 Spain             961
##  6 Italy             919
##  7 Brazil            827
##  8 Germany           510
##  9 Belgium           496
## 10 Ecuador           410
## # … with 181 more rows

# Show COVID19 observations in March and see which countries lost the most people.
Coronavirus  %>% filter(Month == "March", Virus == "COVID19") %>% summarize(Max.Deaths= max(Deaths)) %>% arrange(desc(Max.Deaths))

## # A tibble: 264 x 3
## # Groups:   Country.Region [187]
##    Country.Region Province.State Max.Deaths
##    <chr>          <chr>               <int>
##  1 US             ""                   1175
##  2 Italy          ""                    919
##  3 Spain          ""                    913
##  4 France         ""                    499
##  5 United Kingdom ""                    382
##  6 Belgium        ""                    192
##  7 Netherlands    ""                    175
##  8 Iran           ""                    157
##  9 Germany        ""                    130
## 10 Switzerland    ""                     74
## # … with 254 more rows

Coronavirus %>% select(-Latitude,-Longitude) %>% group_by(Country.Region) %>% summarize(mean_Recovered=mean(Recovered))

## # A tibble: 191 x 2
##    Country.Region      mean_Recovered
##    <chr>                        <dbl>
##  1 Afghanistan                  5.07 
##  2 Albania                      5.91 
##  3 Algeria                     24.3  
##  4 Andorra                      5    
##  5 Angola                       0.118
##  6 Antigua and Barbuda          0.173
##  7 Argentina                   16.0  
##  8 Armenia                     12.0  
##  9 Australia                    6.88 
## 10 Austria                    127.   
## # … with 181 more rows

Coronavirus <- Coronavirus %>% arrange(desc(Date.n))

# Summary Statistics!

Coronavirus %>% group_by(Country.Region) %>% summarize(mean_Deaths=mean(Deaths), sd_Deaths=sd(Deaths), var_Deaths=var(Deaths),n(),min_Deaths=min(Deaths),max_Deaths=max(Deaths),n_distinct_Deaths=n_distinct(Deaths),cor_Deaths_Recovered=cor(Deaths, Recovered), IQR_Deaths=IQR(Deaths), median_Deaths=median(Deaths)) %>% pivot_longer(contains("_"))

## # A tibble: 1,719 x 4
##    Country.Region `n()` name                  value
##    <chr>          <int> <chr>                 <dbl>
##  1 Afghanistan      110 mean_Deaths           1.09 
##  2 Afghanistan      110 sd_Deaths             2.14 
##  3 Afghanistan      110 var_Deaths            4.56 
##  4 Afghanistan      110 min_Deaths            0    
##  5 Afghanistan      110 max_Deaths           13    
##  6 Afghanistan      110 n_distinct_Deaths    10    
##  7 Afghanistan      110 cor_Deaths_Recovered  0.594
##  8 Afghanistan      110 IQR_Deaths            1.75 
##  9 Afghanistan      110 median_Deaths         0    
## 10 Albania          110 mean_Deaths           0.282
## # … with 1,709 more rows

Coronavirus %>% group_by(Country.Region) %>% summarize(mean_Deaths=mean(Deaths), sd_Deaths=sd(Deaths), var_Deaths=var(Deaths),n(),min_Deaths=min(Deaths),max_Deaths=max(Deaths),n_distinct_Deaths=n_distinct(Deaths),cor_Deaths_Recovered=cor(Deaths, Recovered), IQR_Deaths=IQR(Deaths), median_Deaths=median(Deaths)) %>% arrange(desc(mean_Deaths))

## # A tibble: 191 x 11
##    Country.Region mean_Deaths sd_Deaths var_Deaths `n()` min_Deaths max_Deaths
##    <chr>                <dbl>     <dbl>      <dbl> <int>      <int>      <int>
##  1 US                   390.      764.     584410.   204          0       2612
##  2 Italy                151.      251.      63187.   202          0        919
##  3 Spain                136.      253.      64065.   196          0        961
##  4 Belgium               75.3     112.      12567.   115          0        496
##  5 Iran                  60.4      54.9      3016.   110          0        158
##  6 Brazil                58.2     143.      20552.   191          0        827
##  7 Germany               36.7      80.8      6530.   206        -31        510
##  8 Turkey                34.4      44.5      1983.   110          0        127
##  9 Mexico                31.5      57.6      3315.   110          0        257
## 10 United Kingdom        26.4     140.      19711.  1210         -1       1172
## # … with 181 more rows, and 4 more variables: n_distinct_Deaths <int>,
## #   cor_Deaths_Recovered <dbl>, IQR_Deaths <dbl>, median_Deaths <dbl>

Coronavirus %>% group_by(Country.Region, Virus) %>% summarize(mean_Deaths=mean(Deaths), sd_Deaths=sd(Deaths), var_Deaths=var(Deaths),n(),min_Deaths=min(Deaths),max_Deaths=max(Deaths),n_distinct_Deaths=n_distinct(Deaths),cor_Deaths_Recovered=cor(Deaths, Recovered), IQR_Deaths=IQR(Deaths), median_Deaths=median(Deaths))

## # A tibble: 224 x 12
## # Groups:   Country.Region [191]
##    Country.Region Virus mean_Deaths sd_Deaths var_Deaths `n()` min_Deaths
##    <chr>          <chr>       <dbl>     <dbl>      <dbl> <int>      <int>
##  1 Afghanistan    COVI…      1.09       2.14      4.56     110          0
##  2 Albania        COVI…      0.282      0.665     0.443    110          0
##  3 Algeria        COVI…      4.56       6.99     48.9      110          0
##  4 Andorra        COVI…      0.436      0.841     0.707    110          0
##  5 Angola         COVI…      0.0182     0.191     0.0364   110          0
##  6 Antigua and B… COVI…      0.0273     0.164     0.0268   110          0
##  7 Argentina      COVI…      2.77       3.82     14.6      110          0
##  8 Armenia        COVI…      0.409      0.782     0.611    110          0
##  9 Australia      COVI…      0.110      0.438     0.191    880          0
## 10 Australia      SARS       0          0         0         17          0
## # … with 214 more rows, and 5 more variables: max_Deaths <int>,
## #   n_distinct_Deaths <int>, cor_Deaths_Recovered <dbl>, IQR_Deaths <dbl>,
## #   median_Deaths <dbl>

Coronavirus %>% group_by(Country.Region) %>% summarize(mean_Confirmed=mean(Confirmed), sd_Confirmed=sd(Confirmed), var_Confirmed=var(Confirmed),n(),min_Confirmed=min(Confirmed),max_Confirmed=max(Confirmed),n_distinct_Confirmed=n_distinct(Confirmed),cor_Confirmed_Deaths=cor(Confirmed, Deaths), IQR_Confirmed=IQR(Confirmed), median_Confirmed=median(Confirmed))

## # A tibble: 191 x 11
##    Country.Region mean_Confirmed sd_Confirmed var_Confirmed `n()` min_Confirmed
##    <chr>                   <dbl>        <dbl>         <dbl> <int>         <int>
##  1 Afghanistan            40.0         72.7        5291.      110             0
##  2 Albania                 7.89         8.98         80.7     110             0
##  3 Algeria                52.0         63.5        4033.      110             0
##  4 Andorra                 6.86        11.7         136.      110             0
##  5 Angola                  0.409        1.12          1.25    110             0
##  6 Antigua and B…          0.227        0.864         0.746   110             0
##  7 Argentina              54.9         71.6        5126.      110             0
##  8 Armenia                30.1         40.5        1642.      110             0
##  9 Australia               7.75        24.4         595.      897            -2
## 10 Austria               144.         236.        55543.      110             0
## # … with 181 more rows, and 5 more variables: max_Confirmed <int>,
## #   n_distinct_Confirmed <int>, cor_Confirmed_Deaths <dbl>,
## #   IQR_Confirmed <dbl>, median_Confirmed <dbl>

Coronavirus %>% group_by(Country.Region, Virus) %>% summarize(mean_Confirmed=mean(Confirmed), sd_Confirmed=sd(Confirmed), var_Confirmed=var(Confirmed),n(),min_Confirmed=min(Confirmed),max_Confirmed=max(Confirmed),n_distinct_Confirmed=n_distinct(Confirmed),cor_Confirmed_Deaths=cor(Confirmed, Deaths), IQR_Confirmed=IQR(Confirmed), median_Confirmed=median(Confirmed)) %>% arrange(desc(median_Confirmed))

## # A tibble: 224 x 12
## # Groups:   Country.Region [191]
##    Country.Region Virus mean_Confirmed sd_Confirmed var_Confirmed `n()`
##    <chr>          <chr>          <dbl>        <dbl>         <dbl> <int>
##  1 Italy          COVI…          1992.        1993.      3973550.   110
##  2 US             COVI…         12084.       13574.    184261699.   110
##  3 Iran           COVI…           978.         907.       822114.   110
##  4 Germany        COVI…          1563.        1965.      3861925.   110
##  5 Spain          COVI…          2040.        2967.      8804011.   110
##  6 Belgium        COVI…           483.         586.       342872.   110
##  7 Sweden         COVI…           239.         263.        69047.   110
##  8 Switzerland    COVI…           276.         384.       147455.   110
##  9 Brazil         COVI…          1479.        2529.      6397137.   110
## 10 Portugal       COVI…           251.         318.       101424.   110
## # … with 214 more rows, and 6 more variables: min_Confirmed <int>,
## #   max_Confirmed <int>, n_distinct_Confirmed <int>,
## #   cor_Confirmed_Deaths <dbl>, IQR_Confirmed <dbl>, median_Confirmed <dbl>

Coronavirus %>% group_by(Country.Region) %>% summarize(mean_Recovered=mean(Recovered), sd_Recovered=sd(Recovered), var_Recovered=var(Recovered),n(),min_Recovered=min(Recovered),max_Recovered=max(Recovered),n_distinct_Recovered=n_distinct(Recovered),cor_Recovered_Confirmed=cor(Recovered, Confirmed), IQR_Recovered=IQR(Recovered), median_Recovered=median(Recovered)) %>% arrange(desc(max_Recovered))

## # A tibble: 191 x 11
##    Country.Region mean_Recovered sd_Recovered var_Recovered `n()` min_Recovered
##    <chr>                   <dbl>        <dbl>         <dbl> <int>         <int>
##  1 US                     1060.         3319.     11016310.   204            -1
##  2 Brazil                  340.         1218.      1483336.   191            -1
##  3 Germany                 701.         1581.      2499502.   206             0
##  4 Ireland                  84.7         751.       564685.   202             0
##  5 Italy                   521.         1047.      1095543.   202            -4
##  6 Iran                    783.         1044.      1089230.   110             0
##  7 Spain                   695.         1333.      1778004.   196             0
##  8 Russia                  243.          680.       462609.   141             0
##  9 Turkey                  843.         1600.      2559920.   110             0
## 10 Mexico                  198.          667.       445187.   110             0
## # … with 181 more rows, and 5 more variables: max_Recovered <int>,
## #   n_distinct_Recovered <int>, cor_Recovered_Confirmed <dbl>,
## #   IQR_Recovered <dbl>, median_Recovered <dbl>

Coronavirus %>% group_by(Country.Region,Virus) %>% summarize(mean_Recovered=mean(Recovered), sd_Recovered=sd(Recovered), var_Recovered=var(Recovered),n(),min_Recovered=min(Recovered),max_Recovered=max(Recovered),n_distinct_Recovered=n_distinct(Recovered),cor_Recovered_Confirmed=cor(Recovered, Confirmed), IQR_Recovered=IQR(Recovered), median_Recovered=median(Recovered))

## # A tibble: 224 x 12
## # Groups:   Country.Region [191]
##    Country.Region Virus mean_Recovered sd_Recovered var_Recovered `n()`
##    <chr>          <chr>          <dbl>        <dbl>         <dbl> <int>
##  1 Afghanistan    COVI…          5.07        11.3         129.      110
##  2 Albania        COVI…          5.91         8.25         68.1     110
##  3 Algeria        COVI…         24.3         41.9        1754.      110
##  4 Andorra        COVI…          5           10.8         116.      110
##  5 Angola         COVI…          0.118        0.502         0.252   110
##  6 Antigua and B… COVI…          0.173        0.728         0.530   110
##  7 Argentina      COVI…         16.0         26.9         723.      110
##  8 Armenia        COVI…         12.0         20.7         429.      110
##  9 Australia      COVI…          7.01        52.3        2736.      880
## 10 Australia      SARS           0.294        1.05          1.10     17
## # … with 214 more rows, and 6 more variables: min_Recovered <int>,
## #   max_Recovered <int>, n_distinct_Recovered <int>,
## #   cor_Recovered_Confirmed <dbl>, IQR_Recovered <dbl>, median_Recovered <dbl>

The first set of summary statistics was meant to show another instance of pivot_longer use where multiple columns are converted into rows. This means that for each country/region in the country.region variable, there will be a summary statistic with it’s corresponding value. This would increase the number of rows from 118 to 1062 but decrease the total number of columnds from 11 to 3. Pivot_wider would do the reverse if done where it would shift rows to become columns where particular values would be taken from a preexisting column.

Regarding the summary statistics, the first set focused on the deaths numeric variable. I decided to also arrange the summary in descending order with respect to the mean. Clearly, as portrayed in the media, Iran has been experiencing, on average per day, the greatest number of fatalities due to coronavirus. Iran is not represented in the SARS dataset so this average is purely from the COVID19 strain alone. Most of the higher average countries are Asian countries, but Italy with its tight population density in the north is shown to experience the second highest number of fatalities per day on average but has a higher standard deviation than Iran, so this number fluctuates more.

On another note, Japan has the highest median confirmation of new cases which could be explained by their standard of living and access to healthcare services as compared to Iran which has a median close to zero because they can’t accurately test individuals as well as more wealthy countries.
Surprisingly enough, China has the most amount of indiviudals who are in recovery or have recovered from the virus, suggesting they could be past their peak of transmission for the virus within their region. This would also suggest an individual will not have the virus for an extended amount of time but moreso that the virus has permeated through that region and those remainging in the region have already been exposed and have obtained the appropriate defenses while other countries in the near Pacific and abroad from China are experiencing more Confirmed Cases and more fatalaties currently. These variables on a day-basis were more beneficial to analyze than their cumulative predecessors because only the most recent statistic for each cumulative variable would have been useful.

# Correlation Matrix and Heatmap Visualization
Coronavirus %>% mutate(Day=recode(Day, "01"="1","02"="2","03"="3","04"="4","05"="5","06"="6","07"="7","08"="8","09"="9"))

## # A tibble: 31,578 x 16
## # Groups:   Country.Region, Province.State [301]
##    Country.Region Province.State Latitude Longitude Date  Date.n Month Day  
##    <chr>          <chr>          <chr>    <chr>     <chr> <chr>  <chr> <chr>
##  1 Afghanistan    ""             33       65        5/10… 20200… May   10   
##  2 Albania        ""             41.1533  20.1683   5/10… 20200… May   10   
##  3 Algeria        ""             28.0339  1.6596    5/10… 20200… May   10   
##  4 Andorra        ""             42.5063  1.5218    5/10… 20200… May   10   
##  5 Angola         ""             -11.2027 17.8739   5/10… 20200… May   10   
##  6 Antigua and B… ""             17.0608  -61.7964  5/10… 20200… May   10   
##  7 Argentina      ""             -38.4161 -63.6167  5/10… 20200… May   10   
##  8 Armenia        ""             40.0691  45.0382   5/10… 20200… May   10   
##  9 Australia      "Australian C… -35.4735 149.0124  5/10… 20200… May   10   
## 10 Australia      "New South Wa… -33.8688 151.2093  5/10… 20200… May   10   
## # … with 31,568 more rows, and 8 more variables: Year <chr>,
## #   Cuml.Confirmed <int>, Cuml.Deaths <int>, Cuml.Recovered <int>, Virus <chr>,
## #   Confirmed <int>, Deaths <int>, Recovered <int>
…
